{
  "schemaVersion": 1,
  "id": "roleplaychat-fabric",
  "version": "${version}",
  "name": "roleplaychat-fabric",
  "description": "",
  "authors": [],
  "contact": {},
  "license": "MIT",
  "icon": "assets/roleplaychat-fabric/icon.png",
  "environment": "*",
  "entrypoints": {
    "main": [
      "net.xunto.roleplaychat.fabric.RolePlayChatMod"
    ]
  },
  "mixins": [
    "roleplaychat-fabric.mixins.json"
  ],
  "depends": {
    "fabricloader": ">=0.15.11",
    "fabric": "*",
    "minecraft": "1.20.1",
    "fabric-permissions-api-v0": "*"
  }
}
